<?xml version="1.0" encoding="utf-8"?>
<!-- Generator: Adobe Illustrator 22.0.1, SVG Export Plug-In . SVG Version: 6.00 Build 0)  -->
<svg version="1.1" id="Layer_1" xmlns="http://www.w3.org/2000/svg" xmlns:xlink="http://www.w3.org/1999/xlink" x="0px" y="0px"
	 width="360px" height="67px" viewBox="0 0 360 67" style="enable-background:new 0 0 360 67;" xml:space="preserve">
<style type="text/css">
	.st0{fill:#DADADA;}
</style>
<g>
	<polygon class="st0" points="0,39.1 39.1,0 37.7,0 0,37.7 	"/>
	<polygon class="st0" points="0,23.1 23.1,0 21.7,0 0,21.7 	"/>
	<polygon class="st0" points="0,31.1 31.1,0 29.7,0 0,29.7 	"/>
	<polygon class="st0" points="0,47.1 47.1,0 45.7,0 0,45.7 	"/>
	<polygon class="st0" points="53.7,0 0,53.7 0,55.1 55.1,0 	"/>
	<path class="st0" d="M296.7,62.4L359.1,0h-1.4L296,61.7l-3.3-3.3L351.1,0h-1.4L292,57.7l-1.6-1.6c-0.2-0.2-0.4-0.2-0.6-0.1
		l-5.3,2.6L343.1,0h-1.4l-60,60l-1.8,0.9h-5.7L335.1,0h-1.4l-60.9,60.9H270c-0.1,0-0.1,0-0.2,0l-6.2,2.5L327.1,0h-1.4l-64.5,64.5
		l-1.1,0.4l-2.5-3.5L319.1,0h-1.4l-60.6,60.6l-2.7-3.9L311.1,0h-1.4l-55.9,55.9l-2.7-3.9l52-52h-1.4l-51.2,51.2l-0.1-0.1
		c-0.1-0.1-0.2-0.2-0.4-0.2c-0.1,0-0.3,0-0.4,0.1l-9.9,9l-5.2,0.5L295.1,0h-1.4L233,60.7l-3,0.3h-0.1l-6.2,2.5L287.1,0h-1.4
		l-64.5,64.5l-1.1,0.4l-3.1-2.8L279.1,0h-1.4l-61.5,61.5l-3.5-3.1L271.1,0h-1.4L212,57.7l-1.8-1.6l-2-1.2L263.1,0h-1.4l-54.3,54.3
		l-4.1-2.5L255.1,0h-1.4l-51.3,51.3l-2.1-1.3c-0.2-0.1-0.5-0.1-0.6,0.1L189.8,61l-3.3-0.3L247.1,0h-1.4l-60.5,60.5l-5.1-0.5
		l-0.7-0.3L239.1,0h-1.4l-59.3,59.3l-4.7-1.9L231.1,0h-1.4l-57,57l-2.5-1c-0.2-0.1-0.4,0-0.5,0.1l-9.7,8.7l-0.9-0.8l64-64h-1.4
		l-63.3,63.3l-3.5-3.1L215.1,0h-1.4l-59.6,59.6l-3.5-3.1L207.1,0h-1.4l-56.1,56.1l-9.8,3.9l-1.4,0.6L199.1,0h-1.4l-61.9,61.9
		l-5.7,2.7l-2.4-1.1L191.1,0h-1.4l-63.1,63.1l-4.5-2.1l61-61h-1.4l-60.5,60.5l-1-0.5l-3.7-1.5L175.1,0h-1.4l-58.2,58.2l-4.7-1.9
		L167.1,0h-1.4l-56.1,56.1L100,60l-0.6-0.2L159.1,0h-1.4L98.4,59.3l-4.7-1.9L151.1,0h-1.4l-57,57l-2.5-1c-0.1,0-0.3,0-0.4,0
		l-4.6,1.8L143.1,0h-1.4L82.9,58.8l-2.8,1.1l-2.6-2.3L135.1,0h-1.4L76.8,56.9l-3.4-3.1L127.1,0h-1.4L72.6,53.1L70.3,51
		c-0.1-0.1-0.3-0.2-0.5-0.1L67.1,52l52-52h-1.4l-53,53l-5,2l-9.2,5.6L111.1,0h-1.4L48.8,60.9l-6-0.6L103.1,0h-1.4L41.5,60.2L40,60
		c-0.1,0-0.2,0-0.3,0.1l-9.3,5.6L30,65.3L95.1,0h-1.4L29.3,64.4l-3.4-3.3L87.1,0h-1.4L25.2,60.5L22.1,57l57-57h-1.4L21.4,56.3
		l-1.1-1.2c-0.1-0.1-0.3-0.2-0.4-0.2l-4.2,0.5L71.1,0h-1.4L14.2,55.5L9.9,56H9.8l-4.6,1.8L63.1,0h-1.4L2.9,58.8L0,60v1
		c0.1,0,0.1,0,0.2,0l9.9-4l9.7-1.1l10.1,10.7c0.1,0.1,0.2,0.2,0.4,0.2c0.1,0,0.2,0,0.3-0.1l9.6-5.7l9.8,1c0.1,0,0.2,0,0.3-0.1
		l9.9-6.1l9.7-3.9l9.8,8.9C79.8,61,80,61,80.2,61l9.8-4l9.8,3.9c0.1,0,0.3,0,0.4,0L110,57l9.8,3.9l10,4.7c0.1,0.1,0.3,0.1,0.4,0
		l10-4.7l9.7-3.9l9.8,8.8c0.2,0.2,0.5,0.2,0.7,0l9.8-8.8l9.7,3.9h0.1l10,1c0.2,0,0.3,0,0.4-0.2l9.7-10.8l9.6,5.8l10,9
		c0.1,0.1,0.3,0.2,0.5,0.1l9.9-4l9.9-1c0.1,0,0.2-0.1,0.3-0.1l9.6-8.7l9.7,13.6c0.1,0.2,0.4,0.3,0.6,0.2l9.9-4.1h9.9
		c0.1,0,0.2,0,0.2-0.1l9.7-4.7l9.7,9.6c0.1,0.1,0.2,0.1,0.4,0.1h10c0.1,0,0.2,0,0.3-0.1L320,59l9.7,5.9c0.1,0,0.1,0.1,0.2,0.1l10,1
		c0.1,0,0.3,0,0.4-0.1l9.8-8.8l9.7,3.9c0.1,0,0.1,0,0.2,0v-1l-3.5-1.4l3.5-3.5v-1.4l-4.5,4.5l-4.7-1.9l9.2-9.2v-1.4L348.7,57
		l-8.8,7.9l-5.2-0.5L360,39.1v-1.4l-26.6,26.6l-3.2-0.3l-1.9-1.2L360,31.1v-1.4l-32.6,32.6l-4.1-2.5L360,23.1v-1.4l-37.6,37.6
		l-2.1-1.3c-0.2-0.1-0.4-0.1-0.6,0l-9.9,7.9h-0.6L360,15.1v-1.4l-52.2,52.2h-6.6L360,7.1V5.7l-60,60L296.7,62.4z"/>
	<polygon class="st0" points="0,7.1 7.1,0 5.7,0 0,5.7 	"/>
	<polygon class="st0" points="0,15.1 15.1,0 13.7,0 0,13.7 	"/>
</g>
</svg>
