{
  "images" : [
    {
      "idiom" : "universal",
      "filename" : "HelpInterface_iPhone_6_6S_7_8_750x1334_40-1-5-4.pdf"
    }
  ],
  "info" : {
    "version" : 1,
    "author" : "xcode"
  },
  "properties" : {
    "preserves-vector-representation" : true
  }
}